Filter time series data by a specific time interval — filter_time • circleclust
…
summary_tbl
logical; if TRUE (default), a summary table is included in the output showing the
number of observations occurring in each hour of the filtering interval.

    Examples

  filter_time(zoo_trip, t_var = 'Date_Time', t1 = '13:00:00', t2 = '14:30:00',
              summary_tbl = TRUE, span_days = TRUE)
#> Returning observations recorded between 13:00:00 and 14:30:00.
#> Warning: Check the output data frame.  Times outside the requested time interval were returned.
#> 
#>  If the requested time interval does not include midnight,`span_days should be set to `FALSE`. 
#> 
#> $d_filter_time
#> # A tibble: 10,217 × 3
#>    Date_Time             lat   lon
#>    <dttm>              <dbl> <dbl>
#>  1 2020-07-25 13:01:00  39.1 -84.5
#>  2 2020-07-25 13:01:01  39.1 -84.5
#>  3 2020-07-25 13:01:02  39.1 -84.5
#>  4 2020-07-25 13:01:03  39.1 -84.5
#>  5 2020-07-25 13:01:04  39.1 -84.5
#>  6 2020-07-25 13:01:05  39.1 -84.5
#>  7 2020-07-25 13:01:06  39.1 -84.5
#>  8 2020-07-25 13:01:07  39.1 -84.5
#>  9 2020-07-25 13:01:08  39.1 -84.5
#> 10 2020-07-25 13:01:09  39.1 -84.5
#> # … with 10,207 more rows
…
